{
  "Version": "2012-10-17",
  "Statement": [
    {
      "Effect": "Allow",
      "Action": [
        "s3:ListAllMyBuckets",
        "s3:GetBucketLocation"
      ],
      "Resource": "arn:aws:s3:::*"
    },
    {
      "Effect": "Allow",
      "Action": "s3:ListBucket",
      "Resource": "arn:aws:s3:::${backup_bucket}",
      "Condition": {"StringLike": {"s3:prefix": [
        "",
        "${backup_path}"
      ]}}
    },
    {
      "Effect": "Allow",
      "Action": "s3:*",
      "Resource": [
        "arn:aws:s3:::${backup_bucket}/${backup_path}",
        "arn:aws:s3:::${backup_bucket}/${backup_path}*"
      ]
    }
  ]
}